<?xml version="1.0" standalone="no"?>
<!DOCTYPE svg PUBLIC "-//W3C//DTD SVG 1.1//EN" "http://www.w3.org/Graphics/SVG/1.1/DTD/svg11.dtd">
<svg xmlns="http://www.w3.org/2000/svg">
<metadata>Copyright (C) 2015 by original authors @ fontello.com</metadata>
<defs>
<font id="fontello-share" horiz-adv-x="1000" >
<font-face font-family="fontello-share" font-weight="400" font-stretch="normal" units-per-em="1000" ascent="850" descent="-150" />
<missing-glyph horiz-adv-x="1000" />
<glyph glyph-name="left-small" unicode="&#x3c;" d="m595 403q21 0 36-16t15-37-15-37-36-15l-395 0 119-119q15-15 15-37t-15-37-36-15q-23 0-38 15l-245 245 245 245q15 15 37 15t37-15 15-37-15-37l-119-118 395 0z" horiz-adv-x="646" />
<glyph glyph-name="right-small" unicode="&#x3e;" d="m328 595q15 15 36 15t37-15l245-245-245-245q-15-15-36-15-22 0-37 15t-15 37 15 37l120 119-395 0q-22 0-37 15t-16 37 16 37 37 16l395 0-120 118q-15 15-15 37t15 37z" horiz-adv-x="646" />
<glyph glyph-name="flickr" unicode="&#x46;" d="m196 150q-80 0-138 59t-58 141q0 84 57 142t139 58 139-58 57-142q0-82-58-141t-138-59z m508 0q-80 0-138 59t-58 141q0 84 57 142t139 58 139-58 57-142q0-82-58-141t-138-59z" horiz-adv-x="900" />
<glyph glyph-name="github" unicode="&#x47;" d="m620 286q26 0 45-26t19-64-19-64-45-26q-28 0-47 26t-19 64 19 64 47 26z m226 234q74-80 74-194 0-74-17-133t-43-96-64-65-70-41-73-20-62-8-45-1q-6 0-36-1t-50-1-50 1-36 1q-24 0-45 1t-62 8-73 20-70 41-64 65-43 96-17 133q0 114 74 194-8 4-1 80t33 140q92-10 228-104 46 12 126 12 84 0 126-12 62 42 119 68t83 30l26 6q26-64 33-140t-1-80z m-384-514q166 0 251 40t85 164q0 72-54 120-28 26-65 32t-113 0-104-6l-4 0q-32 0-83 4t-80 5-63-7-56-28q-52-46-52-120 0-124 84-164t250-40l4 0z m-160 280q26 0 45-26t19-64-19-64-45-26q-28 0-47 26t-19 64 19 64 47 26z" horiz-adv-x="920" />
<glyph glyph-name="mail-alt" unicode="&#x4d;" d="m1000 454v-443q0-37-26-63t-63-27h-822q-36 0-63 27t-26 63v443q25-28 56-49 202-137 278-192 32-24 51-37t53-27 61-13h2q28 0 61 13t53 27 51 37q95 68 278 192 32 22 56 49z m0 164q0-44-27-84t-68-69q-210-146-262-181-5-4-23-17t-30-22-29-18-33-15-27-5h-2q-12 0-27 5t-33 15-29 18-30 22-23 17q-51 35-147 101t-114 80q-35 23-65 64t-31 77q0 43 23 72t66 29h822q36 0 62-26t27-63z" horiz-adv-x="1000" />
<glyph glyph-name="cancel" unicode="&#x58;" d="m799 116l-156-157-234 235-235-235-156 157 234 234-234 234 156 157 235-235 234 235 156-157-234-234z" horiz-adv-x="817" />
<glyph glyph-name="youtube" unicode="&#x59;" d="m0 123q0 54 6 162 4 53 38 87t87 36q100 5 301 5t301-5q53-3 87-36t38-87q5-90 5-162t-5-162q-4-53-38-87t-87-36q-100-5-301-5t-301 5q-53 3-87 36t-38 87q-6 108-6 162z m67 141l61 0 0-326 59 0 0 326 61 0 0 55-181 0 0-55z m65 603l60 0 38-152 4 0 36 152 60 0-46-148q-23-73-23-75l0-158-59 0 0 151q-2 14-5 26t-9 26-9 25z m116-885q0-48 36-48 32 0 61 35l0-31 52 0 0 281-52 0 0-214q-21-21-31-21-14 0-14 19l0 216-52 0 0-237z m79 575l0 146q0 34 22 53t56 18q33 0 54-20t20-53l0-145q0-36-20-56t-56-21q-35 0-55 22t-21 56z m54-7q0-23 22-23 23 0 23 25l0 153q0 9-7 15t-16 6-15-5-7-15l0-156z m67-612l53 0 0 21q20-25 50-25 47 0 47 62l0 156q0 71-51 71-25 0-46-27l0 123-53 0 0-381z m53 53l0 176q11 11 22 11 22 0 22-28l0-148q0-24-19-24-14 0-25 13z m23 539l0 237 52 0 0-215q0-19 14-19 13 0 31 21l0 213 52 0 0-281-52 0 0 31q-29-35-61-35-36 0-36 48z m114-513q0-38 19-63t57-24q78 0 78 87l0 21-54 0q0-2 1-13t-1-17-2-14-7-12-14-3q-23 0-23 40l0 53 100 0 0 72q0 38-18 60t-57 22q-36 0-57-23t-22-59l0-127z m54 99l0 30q0 31 23 31t23-31l0-30-46 0z" horiz-adv-x="863" />
<glyph glyph-name="dropbox" unicode="&#x64;" d="m286 806l194-158-284-184-196 164z m368-754q8 0 12 2l116 78 0-46-302-190-302 190 0 46 118-78q4-2 12-2 10 0 14 4l158 132 160-132q4-4 14-4z m306 576l-194-164-286 184 196 158z m-480-342l286 178 174-140-282-184z m-176-146l-282 184 174 140 284-178z" horiz-adv-x="960" />
<glyph glyph-name="facebook" unicode="&#x66;" d="m500 644l-142 0q-14 0-25-15t-11-37l0-102 178 0 0-148-178 0 0-442-170 0 0 442-152 0 0 148 152 0 0 86q0 94 59 159t147 65l142 0 0-156z" horiz-adv-x="500" />
<glyph glyph-name="gplus" unicode="&#x67;" d="m410 406q0-20 18-40t43-37 51-41 43-59 18-79q0-50-27-96-40-68-118-101t-166-32q-74 0-138 24t-95 76q-21 34-21 73 0 46 25 84t66 64q73 46 225 56-18 24-26 41t-9 41q0 20 12 48-26-3-38-3-83 0-139 54t-57 137q0 45 20 88t55 73q43 37 102 55t122 18h233l-77-49h-73q41-35 62-74t21-90q0-40-13-72t-33-52-39-36-33-34-14-37z m-81 53q21 0 43 10t37 24q30 32 30 89 0 32-10 69t-27 73-47 57-65 23q-24 0-46-11t-37-29q-26-33-26-89 0-26 5-55t18-57 29-52 42-37 54-15z m1-487q32 0 62 7t55 22 41 41 15 61q0 14-4 27t-8 24-15 23-16 19-22 20-20 16-23 16-21 15q-8 1-26 1-30 0-59-4t-60-14-54-25-38-42-15-59q0-39 19-69t51-46 67-25 71-8z m452 489h119v-60h-119v-122h-59v122h-118v60h118v121h59v-121z" horiz-adv-x="928.6" />
<glyph glyph-name="instagram-1" unicode="&#x69;" d="m690 350q0 26-6 50l176 0 0-344q0-56-39-96t-95-40l-592 0q-56 0-95 40t-39 96l0 344 174 0q-4-32-4-50 0-106 76-183t184-77q106 0 183 77t77 183z m36 430q56 0 95-39t39-95l0-146-218 0q-78 110-212 110-138 0-212-110l-218 0 0 146q0 56 39 95t95 39l592 0z m64-166l0 72q0 24-24 24l-72 0q-24 0-24-24l0-72q0-8 7-16t17-8l72 0q24 0 24 24z m-200-264q0-66-47-113t-113-47-113 47-47 113q0 68 47 114t113 46 113-46 47-114z" horiz-adv-x="860" />
<glyph glyph-name="linkedin" unicode="&#x6c;" d="m204 698q0-40-29-68t-75-28q-44 0-72 28t-28 68q0 42 28 69t74 27 73-27 29-69z m-198-790l0 618 192 0 0-618-192 0z m306 420q0 86-4 198l166 0 10-86 4 0q60 100 190 100 100 0 161-67t61-199l0-366-192 0 0 342q0 134-98 134-70 0-98-72-6-12-6-48l0-356-194 0 0 420z" horiz-adv-x="900" />
<glyph glyph-name="email" unicode="&#x6d;" d="m0 62l0 576q0 1 3 19l339-290-338-325q-4 14-4 20z m45 635q7 3 17 3l913 0q9 0 18-3l-340-291-45-36-89-73-89 73-45 36z m1-694l341 327 132-107 132 107 341-327q-8-3-17-3l-913 0q-8 0-16 3z m650 364l338 290q3-9 3-19l0-576q0-9-3-20z" horiz-adv-x="1037" />
<glyph glyph-name="pinterest" unicode="&#x70;" d="m320 190q-26-130-58-211t-96-129q-6 74-7 120t11 110 22 104 26 99 24 99q-24 52-19 116t48 106 99 20q40-16 44-59t-13-95-32-103-4-90 63-49q68-14 121 38t74 131 11 163-54 128q-62 64-151 70t-163-33-120-117-32-170q4-22 22-52t21-47-17-67q-146 34-140 230 4 138 105 234t233 112q164 18 290-57t144-219q26-176-66-317t-252-129q-22 2-42 9t-30 13-31 21-31 21z" horiz-adv-x="778" />
<glyph glyph-name="reddit" unicode="&#x72;" d="m0 362q0 23 9 44t24 37 36 25 46 9q43 0 74-29 59 37 135 59t162 25l80 228 196-47q9 26 33 42t53 17q39 0 67-27t28-67-28-66-66-27-67 27-28 66l-164 39-67-185q84-4 157-27t129-57q33 29 76 29 23 0 45-9t37-25 24-37 9-44q0-31-15-57t-40-41q4-17 4-35 0-60-35-116t-97-97-143-64-176-24q-92 0-174 24t-143 64-97 97-35 116q0 10 2 20 0 9 2 17-24 16-38 40t-15 56z m86-133q0-55 32-102t88-84 132-57 161-21 160 21 132 57 89 84 32 102-32 104-89 85-132 56-160 21-161-21-132-56-88-85-32-104z m199 54q0 28 22 50t50 21 50-21 21-50-21-49-50-21-50 21-22 49z m53-165q12 10 33-8 6-6 13-10t14-7 13-5 14-3 13-3 14-3 14-2 15-1 17-1q76 4 133 35 21 20 35 8 10-18-12-35-58-45-156-45-105 2-152 45-26 19-8 35z m242 166q0 29 21 50t50 20 51-20 21-50-21-50-51-21-50 21-21 50z" horiz-adv-x="1000" />
<glyph glyph-name="skype" unicode="&#x73;" d="m894 250q26-58 26-118 0-108-75-185t-179-77q-62 0-120 32-52-8-80-8-182 0-311 132t-129 320q0 44 10 90-36 60-36 134 0 108 74 184t180 76q74 0 136-40 32 8 76 8 182 0 310-132t128-320q0-46-10-96z m-204-120q30 46 30 100 0 44-16 80-16 30-50 54-36 22-76 36-68 20-96 26-14 2-35 7t-27 7q-24 8-34 14-16 8-26 22-10 10-10 26 0 24 28 42 26 20 76 20t74-18q26-22 38-50 16-26 26-36 16-12 38-12 26 0 46 20 18 18 18 44 0 20-14 52-16 24-42 48-28 22-74 38-48 14-102 14-72 0-128-22-56-20-86-60t-30-92 28-90q34-40 76-56 48-22 116-36 12-2 29-7t30-8 21-5q28-10 46-28 18-14 18-42 0-34-32-56-36-24-90-24-40 0-64 12-26 14-36 28-24 44-26 46-8 24-24 40-20 14-40 14-28 0-46-18t-18-42q0-38 28-82 26-40 72-66 64-34 158-34 78 0 138 24 60 28 88 70z" horiz-adv-x="920" />
<glyph glyph-name="twitter" unicode="&#x74;" d="m904 622q-37-54-90-93 0-8 0-23 0-73-21-145t-64-139-103-117-144-82-181-30q-151 0-276 81 19-3 43-3 126 0 224 77-59 2-105 36t-64 89q19-2 34-2 24 0 48 6-63 13-104 62t-41 115v2q38-21 82-23-37 25-59 64t-22 86q0 49 25 91 68-83 164-133t208-55q-5 21-5 41 0 75 53 127t127 53q79 0 132-57 61 12 114 44-20-64-79-100 52 6 104 28z" horiz-adv-x="928.6" />
<glyph glyph-name="vimeo" unicode="&#x76;" d="m896 558q-32-186-171-351t-245-237q-42-28-81-17t-66 38-43 61q-16 32-78 239t-74 223q-16 12-38 5t-44-21l-20-14-36 50q18 20 46 52t100 89 124 67q30 6 53-7t36-35 23-60 15-70 12-75 13-67q14-54 21-80t17-54 18-39 18-11q40 0 126 166 42 76 6 124t-112 2q22 126 140 188 104 54 182 8 80-46 58-174z" horiz-adv-x="901" />
<glyph glyph-name="cancel-1" unicode="&#x78;" d="m0 90q0 36 26 62l195 195-195 196q-26 25-26 61t26 61 61 25 61-25l196-196 195 196q25 25 61 25t61-25 25-61-25-61l-195-196 195-195q25-26 25-62t-25-61q-25-25-61-25t-61 25l-195 195-196-195q-25-25-61-25t-61 25q-26 26-26 61z" horiz-adv-x="686.5" />
<glyph glyph-name="youtube-play" unicode="&#x79;" d="m714 350q0 21-16 30l-286 179q-17 11-36 1-19-10-19-31v-358q0-21 19-31 9-4 17-4 11 0 19 5l286 179q16 9 16 30z m286 0q0-54-1-84t-4-76-13-82q-9-41-38-69t-70-32q-123-14-374-14t-374 14q-40 4-70 32t-39 69q-7 36-12 82t-4 76-1 84 1 84 4 76 13 82q9 41 38 69t70 32q123 14 374 14t374-14q40-4 70-32t39-69q8-36 12-82t4-76 1-84z" horiz-adv-x="1000" />
</font>
</defs>
</svg>